[Event "Southern Open"]
[Site "Orlando, FL USA"]
[Date "2005.08.06"]
[EventDate "?"]
[Round "4"]
[Result "0-1"]
[White "Joe Buvel"]
[Black "Andrew R Green"]
[ECO "C39"]
[WhiteElo "?"]
[BlackElo "?"]
[PlyCount "40"]

1.e4 e5 2.f4 exf4 3.Nf3 g5 4.h4 g4 5.Ne5 h5 6.Bc4 Nh6 7.d4 d6
8.Nd3 Bg7 9.Nxf4 Ng8 10.Rf1 Qxh4+ 11.Rf2 Qh1+ 12.Rf1 Qh4+
13.Rf2 Nc6 14.Be3 Nf6 15.Nc3 g3 16.Rf1 Ng4 17.Bxf7+ Kxf7
18.Nh3+ Nf6 { 18...Kg8 19.Bg5 Nf2 20.Bxh4 Nxd1 21.Rxd1 Bg4
22.Rd2 Bxd4 } 19.Nd5 Bxh3 20.gxh3 g2+ 0-1

[Event "Lightning t"]
[Site "Hastings ENG"]
[Date "1919.08.09"]
[EventDate "?"]
[Round "?"]
[Result "1-0"]
[White "Jose Raul Capablanca"]
[Black "Borislav Kostic"]
[ECO "C68"]
[WhiteElo "?"]
[BlackElo "?"]
[PlyCount "33"]

1. e4 e5 2. Nf3 Nc6 3. Bb5 a6 4. Bxc6 dxc6 5. d4 exd4 6. Qxd4
Qxd4 7. Nxd4 Bd7 8. Nc3 O-O-O 9. Be3 Nf6 10. f3 g6 11. O-O Bg7
12. Rfe1 Rhe8 13. Nce2 c5 14. Nb3 b6 15. Nf4 h5 16. c4 Kb7
17. Nd5 {...} 1-0

[Event "Mannheim"]
[Site "Mannheim GER"]
[Date "1914.08.01"]
[EventDate "1914.07.20"]
[Round "11"]
[Result "1-0"]
[White "Alexander Alekhine"]
[Black "Hans Fahrni"]
[ECO "C13"]
[WhiteElo "?"]
[BlackElo "?"]
[PlyCount "45"]
1. e4 {Nc3 (Nc3 {Nc3} ) } 1... e6 2. d4 d5 3. Nc3 Nf6 4. Bg5 Be7 5. e5 Nfd7
6. h4 {This ingenious method of play which has subsequently been adopted by all
modern masters is characteristic of Alekhine’s style.} 6... Bxg5 7. hxg5 Qxg5
8. Nh3 {! The short-stepping knight is always brought as near as possible to
the actual battle field. Therefore White does not make the plausible move 8 Nf3
but 8 Nh3 so as to get the knight to f4.} 8... Qe7 9. Nf4 Nf8 10. Qg4 f5 {The
only move. Not only was 11 Qxg7 threatened but also Nxd5.} 11. exf6 gxf6 12.
O-O-O {He again threatens Nxd5.} 12... c6 13. Re1 Kd8 14. Rh6 e5 15. Qh4 Nbd7
16. Bd3 e4 17. Qg3 Qf7 {Forced - the sacrifice of the knight at d5 was
threatened and after 17...Qd6 18 Bxe4 dxe4 19 Rxe4 and 20 Qg7 wins.} 18. Bxe4
dxe4 19. Nxe4 Rg8 20. Qa3 {Here, as so often happens, a surprising move and one
difficult to have foreseen, forms the kernel of an apparently simple Alekhine
combination.} 20... Qg7 {After 20.Qe7 21.Qa5+ b6 22.Qc3 would follow.} 21.
Nd6 Nb6 22. Ne8 Qf7 {White mates in three moves.} 23. Qd6+ 1-0